605778 476465 470
432186 887883 525
250438 184437 443
608498 247373 470
722911 947837 525
181215 386423 443
182063 658955 509
640883 750262 504
381196 329072 441
842457 526777 525
397253 723346 509
14471 605194 470
450474 167371 449
672362 72844 509
120494 734567 509
341313 217998 443
968247 152277 525
752146 166755 509
382886 934800 525
421922 853966 525
63708 970170 525
416850 108041 449
281179 166749 443
418716 808414 509
564778 604612 434
577545 629558 509
433679 698583 509
913194 483938 525
590455 178566 470
940419 231907 525
308286 838209 525
303557 680654 509
800044 408273 509
700533 953951 525
939765 5464 525
109357 498449 449
760132 482431 509
164996 419575 449
604979 830115 509
861027 448861 525
650719 528045 509
933728 849274 476
123955 27604 354
748054 487248 509
97923 531044 470
471890 488956 413
891144 865071 445
239662 994793 525
998694 277313 525
375030 872064 525
766680 743098 424
253263 981102 525
876562 619365 525
854105 713922 525
220280 786513 509
76250 531045 470
259292 744648 509
787978 327585 509
428227 309111 449
907367 113653 525
319228 869892 525
877366 445102 525
33114 862048 525
18688 276673 443
45370 22100 324
857033 296034 525
441266 304847 449
239787 973440 525
297421 104577 443
423576 503402 444
651209 591275 509
271688 486554 449
289903 99387 443
750165 320276 509
391717 178266 443
315022 507877 449
931001 186937 525
226007 240309 443
116060 941109 525
824968 16506 509
468449 998914 525
580571 88573 470
433038 283724 449
894702 995541 507
310225 345241 384
322979 734684 509
790579 131675 509
975597 164469 525
792418 482106 509
169458 83810 383
910517 520706 525
382277 685302 509
778479 955200 525
561102 43986 470
812433 76527 509
462254 985104 525
459006 839015 525
492330 752119 509
307946 954488 525
2634 268849 443
790031 509822 509
487831 904484 525
824004 28198 509
322270 718054 509
543062 400578 470
122171 797295 509
19682 155154 375
245839 819789 509
677427 218449 509
443873 918108 525
264524 244966 407
162244 425757 449
930056 128208 525
360956 403915 436
642184 304042 509
608607 524875 452
897996 312355 525
922438 89281 525
894575 33534 525
480849 840358 525
951469 596892 525
656768 164546 509
288044 507014 449
306859 304677 309
141407 155237 375
784843 116593 509
797751 116975 509
80098 101405 341
456611 908376 525
343058 415505 449
772943 442023 509
59458 269459 443
883652 539449 525
146094 58407 375
662744 460421 509
592342 274828 470
870786 553617 525
177030 249679 443
306740 8403 443
794386 323844 509
364251 366853 361
79935 721922 509
380855 253235 441
753304 861554 525
27774 693778 509
646278 454726 509
653245 1817 509
575868 583823 434
745238 403876 509
324227 407214 441
693652 366985 509
441136 664801 509
604754 367133 470
948490 824882 525
19786 65694 340
810657 738198 468
412543 543039 470
950523 27536 525
606786 645209 509
438553 384322 449
706875 726586 411
183529 723393 509
904507 419832 525
18557 854749 525
693024 247737 509
960320 376876 525
482612 778280 509
718385 933626 525
735935 10970 509
576065 221557 470
983859 343164 525
640456 730318 504
748305 193131 509
60040 132517 354
30117 462392 449
635415 783928 504
558381 550699 421
97579 132111 354
983677 90510 525
534984 529535 377
468749 88881 449
615447 826275 509
189772 378605 443
95485 481920 449
335381 206569 443
542669 467004 470
420604 288365 449
986041 193696 525
725621 19576 509
634051 228021 509
733790 358495 509
379276 630995 509
135042 43938 354
661395 154547 509
70078 251869 443
658716 529219 509
838898 492914 525
180031 898244 525
203501 287046 443
44868 721073 509
972626 610950 525
398144 949094 525
473732 318360 449
296467 570917 470
422179 940330 525
830260 911227 525
426667 164238 449
595755 42200 470
49996 632684 509
993876 477439 525
915257 823081 525
215220 421340 449
445092 147439 449
868951 921044 476
976803 635922 525
482993 871948 525
313693 717964 509
660675 395825 509
502486 574209 470
295225 930696 525
20104 500190 449
361259 50656 443
109797 218616 386
240964 561277 470
533717 2483 470
39570 439698 449
236019 980268 525
747530 152450 509
606057 277204 470
205029 752304 509
131630 672446 509
520946 604162 452
450578 21009 449
525243 636362 509
605224 165458 470
328216 330899 353
754137 242091 509
854664 65443 525
987589 307713 525
704414 673760 442
